// Jest Snapshot v1, https://goo.gl/fbAQLP

exports[`Card component renders correctly 1`] = `
<li
  className="card"
>
  <figure
    className="card__figure"
    style={
      Object {
        "backgroundImage": "url(#)",
      }
    }
  >
    <span
      className="card__link"
      onClick={[Function]}
      onKeyPress={[Function]}
      role="button"
      tabIndex="-1"
    >
      <img
        alt="Product name"
        className="card__image"
        src="#"
      />
    </span>
  </figure>
  <header
    className="card__description"
  >
    <h2
      className="card__title h4"
    >
      Product name
    </h2>
    <p
      className="card__tagline"
    >
      Product tagline...
    </p>
    <p
      className="card__abv"
    >
      4
       
      <i
        className="fas fa-percentage icon"
      />
    </p>
  </header>
  <div
    className="card__cta"
  >
    <a
      className="button button--primary"
      href="#"
      onClick={[Function]}
      rel=""
      target="_self"
      title="More details"
    >
      More details
    </a>
  </div>
</li>
`;
